Retrieving education statistics from UNICEF with the rsdmx package
…
cl_country_codelist <- purrr::keep(
  unicef_education_dsd@codelists@codelists,
  ~.x@id == "CL_COUNTRY"
)[[1]]

country_codes_and_labels <- purrr::map(
  cl_country_codelist@Code,
  ~dplyr::tibble(code = .x@id, label = .x@label$en)
) |> 
  purrr::list_rbind()

country_codes_and_labels

# A tibble: 371 × 2
   code  label               
   <chr> <chr>               
 1 ABW   Aruba               
 2 AFG   Afghanistan         
 3 AGO   Angola              
 4 AIA   Anguilla            
 5 ALB   Albania             
 6 AND   Andorra             
 7 ARE   United Arab Emirates
 8 ARG   Argentina           
 9 ARM   Armenia             
10 ASM   American Samoa      
# ℹ 361 more rows
…
Looks like most of these are supra- or sub-national regions, so it makes sense that we couldn’t match them to a single country name. Now we’re ready to filter down to countries in Africa so we can get the corresponding codes for our API request:

african_country_codes <- country_codes_and_labels |> 
  dplyr::filter(continent == "Africa")

african_country_codes

# A tibble: 57 × 4
   code  label                            standard_label           continent
   <chr> <chr>                            <chr>                    <chr>    
 1 AGO   Angola                           Angola                   Africa   
 2 BDI   Burundi                          Burundi                  Africa   
 3 BEN   Benin                            Benin                    Africa   
 4 BFA   Burkina Faso                     Burkina Faso             Africa   
 5 BWA   Botswana                         Botswana                 Africa   
 6 CAF   Central African Republic         Central African Republic Africa   
 7 CIV   Côte d'Ivoire                    Côte d’Ivoire            Africa   
 8 CMR   Cameroon                         Cameroon                 Africa   
 9 COD   Democratic Republic of the Congo Congo - Kinshasa         Africa   
10 COG   Congo                            Congo - Brazzaville      Africa   
# ℹ 47 more rows
…
